ST558 - Homework 4: Hodge podging with purrr
…
List of 3
 $ status      : chr "ok"
 $ totalResults: int 303
 $ articles    :'data.frame':   100 obs. of  8 variables:

#turning the dataframe into a tibble 
bio_info <- bio_parsed$articles |>
  as_tibble()
bio_info

# A tibble: 100 × 8
   source$id $name author title description url   urlToImage publishedAt content
   <chr>     <chr> <chr>  <chr> <chr>       <chr> <chr>      <chr>       <chr>  
 1 new-scie… New … James… Ship… "Cashew nu… http… https://i… 2024-06-17… "Cashe…
 2 <NA>      Scie… <NA>   Sky'… "The Unite… http… https://w… 2024-06-07… "The U…
 3 <NA>      Read… Suswa… Smar… "Scientist… http… https://r… 2024-06-06… "Scien…
 4 abc-news  ABC … PATRI… Main… "Represent… http… https://i… 2024-06-04… "PORTL…
 5 <NA>      Auto… Jonat… It's… "Filed und… http… https://s… 2024-06-27… "Last …
 6 <NA>      Phys… April… Fine… "Sugarcane… http… https://s… 2024-06-10… "This …
 7 <NA>      Phys… DORAN… Conv… "The stenc… http… https://s… 2024-06-14… "This …
 8 <NA>      Scie… <NA>   Fine… "A CABBI r… http… https://w… 2024-06-10… "Sugar…
 9 <NA>      Thea… Elia … Norw… "Exploring… http… https://t… 2024-06-17… "A Roy…
10 <NA>      Scie… <NA>   Risk… "The Swedi… http… https://w… 2024-05-29… "The S…
# ℹ 90 more rows
…
